Part #2:

Answers from code:

- 1067 - WA - too low

	width = target[0] + 10
	height = target[1] + 10
	
- 1071 - WA - too high

	width = target[0]
	height = target[1]
	
	
Guessing:

- 1069 - too high
- 1068 - AC